{
	"info": {
		"_postman_id": "9a346a2a-7675-40af-84bc-0ef4cd32ec4d",
		"name": "mhrwriter",
		"schema": "https://schema.getpostman.com/json/collection/v2.1.0/collection.json"
	},
	"item": [
		{
			"name": "https://jobswp.local/ukwriter/backend/web/index.php/api/save-order",
			"request": {
				"auth": {
					"type": "basic",
					"basic": [
						{
							"key": "password",
							"value": "tl001",
							"type": "string"
						},
						{
							"key": "username",
							"value": "admin",
							"type": "string"
						}
					]
				},
				"method": "POST",
				"header": [
					{
						"key": "",
						"value": ""
					}
				],
				"body": {
					"mode": "formdata",
					"formdata": [
						{
							"key": "cust[name]",
							"value": "test",
							"type": "text"
						},
						{
							"key": "cust[email]",
							"value": "test@yopmail.com",
							"type": "text"
						},
						{
							"key": "cust[phone]",
							"value": "123456879",
							"type": "text"
						},
						{
							"key": "cust[ip]",
							"value": "12.12.12.12",
							"type": "text"
						},
						{
							"key": "model",
							"value": "order",
							"type": "text"
						},
						{
							"key": "total_amount",
							"value": "12.55",
							"type": "text"
						},
						{
							"key": "paper_type_id",
							"value": "1",
							"type": "text"
						},
						{
							"key": "service_type_id",
							"value": "1",
							"type": "text"
						},
						{
							"key": "quality_id",
							"value": "1",
							"type": "text"
						},
						{
							"key": "urgency_id",
							"value": "1",
							"type": "text"
						},
						{
							"key": "no_pages_id",
							"value": "1",
							"type": "text"
						},
						{
							"key": "subject_area_id",
							"value": "1",
							"type": "text"
						},
						{
							"key": "topic",
							"value": "from api",
							"type": "text"
						},
						{
							"key": "acadamic_level_id",
							"value": "1",
							"type": "text"
						},
						{
							"key": "writing_style_id",
							"value": "1",
							"type": "text"
						},
						{
							"key": "instructions",
							"value": "asdasdasd",
							"type": "text"
						},
						{
							"key": "payment_method",
							"value": "paypal",
							"type": "text"
						}
					]
				},
				"url": {
					"raw": "https://jobswp.local/ukwriter/backend/web/index.php/api/record",
					"protocol": "https",
					"host": [
						"jobswp",
						"local"
					],
					"path": [
						"ukwriter",
						"backend",
						"web",
						"index.php",
						"api",
						"record"
					]
				},
				"description": "order and customer info save in crm"
			},
			"response": []
		}
	]
}